
[
  {
    "type":"phpmetrics",
    "settings":{

    }
  },
  {
    "type":"magentoRewrite",
    "settings":{

    }
  },
  {
    "type":"clamScan",
    "settings":{

    }
  },
  {
    "type":"phpcs",
    "settings":{
      "ignore_list":[
        {
          "type":"file",
          "path":"app\/Mage.php"
        },
        {
          "type":"file",
          "path":"api.php"
        },
        {
          "type":"file",
          "path":"get.php"
        },
        {
          "type":"file",
          "path":"install.php"
        },
        {
          "type":"file",
          "path":"cron.php"
        },
        {
          "type":"directory",
          "path":"spec"
        },
        {
          "type":"directory",
          "path":"lib/"
        },
        {
          "type":"directory",
          "path":"features/"
        },
        {
          "type":"directory",
          "path":"downloader/"
        }
      ],
      "file_extensions":[
        "php",
        "phtml"
      ],
      "standards":[
        "ECG"
      ],
      "report":"json",
      "files":[

      ]
    }
  }
]